{
  magicByte: 2,
  attributes: 0,
  timestamp: '1624922120149',
  offset: '193',
  key: null,
  value: '45.44',
  headers: {},
  isControlRecord: false,
  batchContext: {
    firstOffset: '193',
    firstTimestamp: '1624922120149',
    partitionLeaderEpoch: 8,
    inTransaction: false,
    isControlBatch: false,
    lastOffsetDelta: 0,
    producerId: '-1',
    producerEpoch: -1,
    firstSequence: -1,
    maxTimestamp: '1624922120149',
    timestampType: 0,
    magicByte: 2
  },
  topic: 'exchanges',
  partition: 0
}
